\BOOKMARK [1][-]{section.1}{Introduction}{}% 1
\BOOKMARK [1][-]{section.2}{Literature Review}{}% 2
\BOOKMARK [2][-]{subsection.2.1}{Self-Regulation}{section.2}% 3
\BOOKMARK [2][-]{subsection.2.2}{Indicators}{section.2}% 4
\BOOKMARK [3][-]{subsubsection.2.2.1}{Goal Orientation}{subsection.2.2}% 5
\BOOKMARK [3][-]{subsubsection.2.2.2}{Goal Tracking Status}{subsection.2.2}% 6
\BOOKMARK [3][-]{subsubsection.2.2.3}{Goal Completion Status}{subsection.2.2}% 7
\BOOKMARK [3][-]{subsubsection.2.2.4}{Time Management}{subsection.2.2}% 8
\BOOKMARK [3][-]{subsubsection.2.2.5}{Quiz Mark}{subsection.2.2}% 9
\BOOKMARK [3][-]{subsubsection.2.2.6}{Help Seeking}{subsection.2.2}% 10
\BOOKMARK [3][-]{subsubsection.2.2.7}{Study Kit}{subsection.2.2}% 11
\BOOKMARK [3][-]{subsubsection.2.2.8}{Final Grade}{subsection.2.2}% 12
\BOOKMARK [2][-]{subsection.2.3}{Goal Tracking Example}{section.2}% 13
\BOOKMARK [1][-]{section.3}{Work Statement}{}% 14
\BOOKMARK [2][-]{subsection.3.1}{System Architecturing}{section.3}% 15
\BOOKMARK [2][-]{subsection.3.2}{Architecture}{section.3}% 16
\BOOKMARK [2][-]{subsection.3.3}{Package \046 Dependencies}{section.3}% 17
\BOOKMARK [2][-]{subsection.3.4}{Interface Design}{section.3}% 18
\BOOKMARK [2][-]{subsection.3.5}{Typical Use Cases}{section.3}% 19
\BOOKMARK [3][-]{subsubsection.3.5.1}{Use case 1}{subsection.3.5}% 20
\BOOKMARK [3][-]{subsubsection.3.5.2}{Use case 2}{subsection.3.5}% 21
\BOOKMARK [3][-]{subsubsection.3.5.3}{Use case 3}{subsection.3.5}% 22
\BOOKMARK [3][-]{subsubsection.3.5.4}{Use case 4}{subsection.3.5}% 23
\BOOKMARK [2][-]{subsection.3.6}{Data Modelling}{section.3}% 24
\BOOKMARK [2][-]{subsection.3.7}{Code Structure}{section.3}% 25
\BOOKMARK [2][-]{subsection.3.8}{Requirements Specification}{section.3}% 26
\BOOKMARK [3][-]{subsubsection.3.8.1}{Functional Requirements}{subsection.3.8}% 27
\BOOKMARK [3][-]{subsubsection.3.8.2}{Non-functional Requirements}{subsection.3.8}% 28
\BOOKMARK [2][-]{subsection.3.9}{Limitations}{section.3}% 29
\BOOKMARK [3][-]{subsubsection.3.9.1}{Library Limitation}{subsection.3.9}% 30
\BOOKMARK [3][-]{subsubsection.3.9.2}{Acception Test Limitation}{subsection.3.9}% 31
\BOOKMARK [2][-]{subsection.3.10}{Risk Factors}{section.3}% 32
\BOOKMARK [3][-]{subsubsection.3.10.1}{Technical Risk}{subsection.3.10}% 33
\BOOKMARK [3][-]{subsubsection.3.10.2}{Scope Creep}{subsection.3.10}% 34
\BOOKMARK [3][-]{subsubsection.3.10.3}{Late Delivery}{subsection.3.10}% 35
\BOOKMARK [1][-]{section.4}{Plan for the next semester}{}% 36
\BOOKMARK [2][-]{subsection.4.1}{Front-end Implementation}{section.4}% 37
\BOOKMARK [2][-]{subsection.4.2}{Back-end Implementation}{section.4}% 38
\BOOKMARK [2][-]{subsection.4.3}{Deployment \046 Acceptance Testing}{section.4}% 39
\BOOKMARK [2][-]{subsection.4.4}{Draft thesis}{section.4}% 40
\BOOKMARK [2][-]{subsection.4.5}{Thesis \046 Presentation}{section.4}% 41
\BOOKMARK [1][-]{section.5}{Reference}{}% 42
