\relax 
\providecommand\hyper@newdestlabel[2]{}
\providecommand\HyperFirstAtBeginDocument{\AtBeginDocument}
\HyperFirstAtBeginDocument{\ifx\hyper@anchor\@undefined
\global\let\oldcontentsline\contentsline
\gdef\contentsline#1#2#3#4{\oldcontentsline{#1}{#2}{#3}}
\global\let\oldnewlabel\newlabel
\gdef\newlabel#1#2{\newlabelxx{#1}#2}
\gdef\newlabelxx#1#2#3#4#5#6{\oldnewlabel{#1}{{#2}{#3}}}
\AtEndDocument{\ifx\hyper@anchor\@undefined
\let\contentsline\oldcontentsline
\let\newlabel\oldnewlabel
\fi}
\fi}
\global\let\hyper@last\relax 
\gdef\HyperFirstAtBeginDocument#1{#1}
\providecommand\HyField@AuxAddToFields[1]{}
\providecommand\HyField@AuxAddToCoFields[2]{}
\providecommand\@newglossary[4]{}
\@newglossary{main}{glg}{gls}{glo}
\@newglossary{acronym}{alg}{acr}{acn}
\@writefile{toc}{\contentsline {section}{\numberline {1}Introduction}{1}{section.1}}
\@writefile{toc}{\contentsline {section}{\numberline {2}Literature Review}{1}{section.2}}
\@writefile{toc}{\contentsline {subsection}{\numberline {2.1}Self-Regulation}{2}{subsection.2.1}}
\@writefile{toc}{\contentsline {subsection}{\numberline {2.2}Indicators}{2}{subsection.2.2}}
\@writefile{toc}{\contentsline {subsubsection}{\numberline {2.2.1}Goal Orientation}{3}{subsubsection.2.2.1}}
\@writefile{toc}{\contentsline {subsubsection}{\numberline {2.2.2}Goal Tracking Status}{3}{subsubsection.2.2.2}}
\@writefile{toc}{\contentsline {subsubsection}{\numberline {2.2.3}Goal Completion Status}{3}{subsubsection.2.2.3}}
\@writefile{toc}{\contentsline {subsubsection}{\numberline {2.2.4}Time Management}{3}{subsubsection.2.2.4}}
\@writefile{toc}{\contentsline {subsubsection}{\numberline {2.2.5}Quiz Mark}{3}{subsubsection.2.2.5}}
\@writefile{toc}{\contentsline {subsubsection}{\numberline {2.2.6}Help Seeking}{3}{subsubsection.2.2.6}}
\@writefile{toc}{\contentsline {subsubsection}{\numberline {2.2.7}Study Kit}{3}{subsubsection.2.2.7}}
\@writefile{toc}{\contentsline {subsubsection}{\numberline {2.2.8}Final Grade}{3}{subsubsection.2.2.8}}
\@writefile{toc}{\contentsline {subsection}{\numberline {2.3}Goal Tracking Example}{3}{subsection.2.3}}
\@writefile{toc}{\contentsline {section}{\numberline {3}Work Statement}{4}{section.3}}
\@writefile{toc}{\contentsline {subsection}{\numberline {3.1}System Architecturing}{4}{subsection.3.1}}
\@writefile{toc}{\contentsline {subsection}{\numberline {3.2}Architecture}{5}{subsection.3.2}}
\@writefile{lof}{\contentsline {figure}{\numberline {1}{\ignorespaces System Architecture}}{5}{figure.1}}
\newlabel{Model:Architecture}{{1}{5}{System Architecture}{figure.1}{}}
\@writefile{toc}{\contentsline {subsection}{\numberline {3.3}Package \& Dependencies}{5}{subsection.3.3}}
\@writefile{toc}{\contentsline {subsection}{\numberline {3.4}Interface Design}{6}{subsection.3.4}}
\@writefile{lof}{\contentsline {figure}{\numberline {2}{\ignorespaces Goal Tracking Center}}{6}{figure.2}}
\newlabel{Model:GTC}{{2}{6}{Goal Tracking Center}{figure.2}{}}
\@writefile{lof}{\contentsline {figure}{\numberline {3}{\ignorespaces Study Kit}}{7}{figure.3}}
\newlabel{Model:SK}{{3}{7}{Study Kit}{figure.3}{}}
\@writefile{toc}{\contentsline {subsection}{\numberline {3.5}Typical Use Cases}{7}{subsection.3.5}}
\@writefile{toc}{\contentsline {subsubsection}{\numberline {3.5.1}Use case 1}{7}{subsubsection.3.5.1}}
\@writefile{toc}{\contentsline {subsubsection}{\numberline {3.5.2}Use case 2}{8}{subsubsection.3.5.2}}
\@writefile{toc}{\contentsline {subsubsection}{\numberline {3.5.3}Use case 3}{8}{subsubsection.3.5.3}}
\@writefile{toc}{\contentsline {subsubsection}{\numberline {3.5.4}Use case 4}{8}{subsubsection.3.5.4}}
\@writefile{toc}{\contentsline {subsection}{\numberline {3.6}Data Modelling}{9}{subsection.3.6}}
\@writefile{lof}{\contentsline {figure}{\numberline {4}{\ignorespaces Entity Relationship Diagram}}{9}{figure.4}}
\newlabel{Model:ERD}{{4}{9}{Entity Relationship Diagram}{figure.4}{}}
\@writefile{toc}{\contentsline {subsection}{\numberline {3.7}Code Structure}{10}{subsection.3.7}}
\@writefile{lof}{\contentsline {figure}{\numberline {5}{\ignorespaces Code Structure}}{10}{figure.5}}
\newlabel{Model:CS}{{5}{10}{Code Structure}{figure.5}{}}
\@writefile{toc}{\contentsline {subsection}{\numberline {3.8}Requirements Specification}{11}{subsection.3.8}}
\@writefile{toc}{\contentsline {subsubsection}{\numberline {3.8.1}Functional Requirements}{11}{subsubsection.3.8.1}}
\@writefile{toc}{\contentsline {subsubsection}{\numberline {3.8.2}Non-functional Requirements}{11}{subsubsection.3.8.2}}
\@writefile{toc}{\contentsline {subsection}{\numberline {3.9}Limitations}{11}{subsection.3.9}}
\@writefile{toc}{\contentsline {subsubsection}{\numberline {3.9.1}Library Limitation}{11}{subsubsection.3.9.1}}
\@writefile{toc}{\contentsline {subsubsection}{\numberline {3.9.2}Acception Test Limitation}{11}{subsubsection.3.9.2}}
\@writefile{toc}{\contentsline {subsection}{\numberline {3.10}Risk Factors}{11}{subsection.3.10}}
\@writefile{toc}{\contentsline {subsubsection}{\numberline {3.10.1}Technical Risk}{11}{subsubsection.3.10.1}}
\@writefile{toc}{\contentsline {subsubsection}{\numberline {3.10.2}Scope Creep}{12}{subsubsection.3.10.2}}
\@writefile{toc}{\contentsline {subsubsection}{\numberline {3.10.3}Late Delivery}{12}{subsubsection.3.10.3}}
\@writefile{toc}{\contentsline {section}{\numberline {4}Plan for the next semester}{12}{section.4}}
\@writefile{toc}{\contentsline {subsection}{\numberline {4.1}Front-end Implementation}{12}{subsection.4.1}}
\@writefile{toc}{\contentsline {subsection}{\numberline {4.2}Back-end Implementation}{12}{subsection.4.2}}
\@writefile{toc}{\contentsline {subsection}{\numberline {4.3}Deployment \& Acceptance Testing}{12}{subsection.4.3}}
\@writefile{toc}{\contentsline {subsection}{\numberline {4.4}Draft thesis}{12}{subsection.4.4}}
\@writefile{toc}{\contentsline {subsection}{\numberline {4.5}Thesis \& Presentation}{12}{subsection.4.5}}
\@writefile{toc}{\contentsline {section}{\numberline {5}Reference}{12}{section.5}}
