\relax 
\providecommand\hyper@newdestlabel[2]{}
\providecommand\HyperFirstAtBeginDocument{\AtBeginDocument}
\HyperFirstAtBeginDocument{\ifx\hyper@anchor\@undefined
\global\let\oldcontentsline\contentsline
\gdef\contentsline#1#2#3#4{\oldcontentsline{#1}{#2}{#3}}
\global\let\oldnewlabel\newlabel
\gdef\newlabel#1#2{\newlabelxx{#1}#2}
\gdef\newlabelxx#1#2#3#4#5#6{\oldnewlabel{#1}{{#2}{#3}}}
\AtEndDocument{\ifx\hyper@anchor\@undefined
\let\contentsline\oldcontentsline
\let\newlabel\oldnewlabel
\fi}
\fi}
\global\let\hyper@last\relax 
\gdef\HyperFirstAtBeginDocument#1{#1}
\providecommand\HyField@AuxAddToFields[1]{}
\providecommand\HyField@AuxAddToCoFields[2]{}
\providecommand\@newglossary[4]{}
\@newglossary{main}{glg}{gls}{glo}
\@newglossary{acronym}{alg}{acr}{acn}
\@writefile{toc}{\contentsline {section}{\numberline {1}Introduction}{1}{section.1}}
\@writefile{toc}{\contentsline {section}{\numberline {2}General System Description}{1}{section.2}}
\@writefile{toc}{\contentsline {subsection}{\numberline {2.1}Objectives}{1}{subsection.2.1}}
\@writefile{toc}{\contentsline {subsection}{\numberline {2.2}System Description}{1}{subsection.2.2}}
\@writefile{toc}{\contentsline {subsection}{\numberline {2.3}Architecture}{2}{subsection.2.3}}
\@writefile{lof}{\contentsline {figure}{\numberline {1}{\ignorespaces System Architecture}}{2}{figure.1}}
\newlabel{Model:Architecture}{{1}{2}{System Architecture}{figure.1}{}}
\@writefile{toc}{\contentsline {subsection}{\numberline {2.4}Use cases}{2}{subsection.2.4}}
\@writefile{toc}{\contentsline {subsubsection}{\numberline {2.4.1}Use case 1}{2}{subsubsection.2.4.1}}
\@writefile{toc}{\contentsline {subsubsection}{\numberline {2.4.2}Use case 2}{3}{subsubsection.2.4.2}}
\@writefile{toc}{\contentsline {subsubsection}{\numberline {2.4.3}Use case 3}{3}{subsubsection.2.4.3}}
\@writefile{toc}{\contentsline {section}{\numberline {3}Project Environment}{3}{section.3}}
\@writefile{toc}{\contentsline {subsection}{\numberline {3.1}Tools}{3}{subsection.3.1}}
\@writefile{toc}{\contentsline {subsection}{\numberline {3.2}Limitations}{4}{subsection.3.2}}
\@writefile{toc}{\contentsline {subsubsection}{\numberline {3.2.1}Library Limitation}{4}{subsubsection.3.2.1}}
\@writefile{toc}{\contentsline {subsubsection}{\numberline {3.2.2}Acception Test Limitation}{4}{subsubsection.3.2.2}}
\@writefile{toc}{\contentsline {subsection}{\numberline {3.3}Risk Factors}{4}{subsection.3.3}}
\@writefile{toc}{\contentsline {subsubsection}{\numberline {3.3.1}Technical Risk}{4}{subsubsection.3.3.1}}
\@writefile{toc}{\contentsline {subsubsection}{\numberline {3.3.2}Scope Creep}{4}{subsubsection.3.3.2}}
\@writefile{toc}{\contentsline {subsubsection}{\numberline {3.3.3}Late Delivery}{4}{subsubsection.3.3.3}}
\@writefile{toc}{\contentsline {section}{\numberline {4}Requirement Specification}{4}{section.4}}
\@writefile{toc}{\contentsline {subsection}{\numberline {4.1}Functional Requirements}{4}{subsection.4.1}}
\@writefile{toc}{\contentsline {subsection}{\numberline {4.2}Non-functional Requirements}{4}{subsection.4.2}}
\@writefile{toc}{\contentsline {section}{\numberline {5}Weekly Schedule}{5}{section.5}}
\@writefile{lof}{\contentsline {figure}{\numberline {2}{\ignorespaces Weekly Schedule}}{5}{figure.2}}
\newlabel{Model:Weekly}{{2}{5}{Weekly Schedule}{figure.2}{}}
