\contentsline {section}{\numberline {1}Introduction}{1}{section.1}
\contentsline {section}{\numberline {2}General System Description}{1}{section.2}
\contentsline {subsection}{\numberline {2.1}Objectives}{1}{subsection.2.1}
\contentsline {subsection}{\numberline {2.2}System Description}{1}{subsection.2.2}
\contentsline {subsection}{\numberline {2.3}Architecture}{2}{subsection.2.3}
\contentsline {subsection}{\numberline {2.4}Use cases}{2}{subsection.2.4}
\contentsline {subsubsection}{\numberline {2.4.1}Use case 1}{2}{subsubsection.2.4.1}
\contentsline {subsubsection}{\numberline {2.4.2}Use case 2}{3}{subsubsection.2.4.2}
\contentsline {subsubsection}{\numberline {2.4.3}Use case 3}{3}{subsubsection.2.4.3}
\contentsline {section}{\numberline {3}Project Environment}{3}{section.3}
\contentsline {subsection}{\numberline {3.1}Tools}{3}{subsection.3.1}
\contentsline {subsection}{\numberline {3.2}Limitations}{4}{subsection.3.2}
\contentsline {subsubsection}{\numberline {3.2.1}Library Limitation}{4}{subsubsection.3.2.1}
\contentsline {subsubsection}{\numberline {3.2.2}Acception Test Limitation}{4}{subsubsection.3.2.2}
\contentsline {subsection}{\numberline {3.3}Risk Factors}{4}{subsection.3.3}
\contentsline {subsubsection}{\numberline {3.3.1}Technical Risk}{4}{subsubsection.3.3.1}
\contentsline {subsubsection}{\numberline {3.3.2}Scope Creep}{4}{subsubsection.3.3.2}
\contentsline {subsubsection}{\numberline {3.3.3}Late Delivery}{4}{subsubsection.3.3.3}
\contentsline {section}{\numberline {4}Requirement Specification}{4}{section.4}
\contentsline {subsection}{\numberline {4.1}Functional Requirements}{4}{subsection.4.1}
\contentsline {subsection}{\numberline {4.2}Non-functional Requirements}{4}{subsection.4.2}
\contentsline {section}{\numberline {5}Weekly Schedule}{5}{section.5}
